<?xml version="1.0" encoding="UTF-8" standalone="no"?>
<svg
   xmlns:dc="http://purl.org/dc/elements/1.1/"
   xmlns:cc="http://creativecommons.org/ns#"
   xmlns:rdf="http://www.w3.org/1999/02/22-rdf-syntax-ns#"
   xmlns:svg="http://www.w3.org/2000/svg"
   xmlns="http://www.w3.org/2000/svg"
   xmlns:sodipodi="http://sodipodi.sourceforge.net/DTD/sodipodi-0.dtd"
   xmlns:inkscape="http://www.inkscape.org/namespaces/inkscape"
   width="229.21931mm"
   height="240.79489mm"
   viewBox="0 0 229.21932 240.79489"
   version="1.1"
   id="svg8"
   inkscape:version="1.0.2 (e86c870879, 2021-01-15, custom)"
   sodipodi:docname="milestone-deps.eps">
  <defs
     id="defs2">
    <marker
       style="overflow:visible"
       id="marker14703"
       refX="0"
       refY="0"
       orient="auto"
       inkscape:stockid="Arrow1Mend"
       inkscape:isstock="true">
      <path
         transform="matrix(-0.4,0,0,-0.4,-4,0)"
         style="fill:#000000;fill-opacity:1;fill-rule:evenodd;stroke:#000000;stroke-width:1pt;stroke-opacity:1"
         d="M 0,0 5,-5 -12.5,0 5,5 Z"
         id="path14701" />
    </marker>
    <marker
       style="overflow:visible"
       id="marker14359"
       refX="0"
       refY="0"
       orient="auto"
       inkscape:stockid="Arrow1Mend"
       inkscape:isstock="true">
      <path
         transform="matrix(-0.4,0,0,-0.4,-4,0)"
         style="fill:#000000;fill-opacity:1;fill-rule:evenodd;stroke:#000000;stroke-width:1pt;stroke-opacity:1"
         d="M 0,0 5,-5 -12.5,0 5,5 Z"
         id="path14357" />
    </marker>
    <marker
       style="overflow:visible"
       id="marker13981"
       refX="0"
       refY="0"
       orient="auto"
       inkscape:stockid="Arrow1Mend"
       inkscape:isstock="true">
      <path
         transform="matrix(-0.4,0,0,-0.4,-4,0)"
         style="fill:#000000;fill-opacity:1;fill-rule:evenodd;stroke:#000000;stroke-width:1pt;stroke-opacity:1"
         d="M 0,0 5,-5 -12.5,0 5,5 Z"
         id="path13979" />
    </marker>
    <marker
       style="overflow:visible"
       id="marker13689"
       refX="0"
       refY="0"
       orient="auto"
       inkscape:stockid="Arrow1Mend"
       inkscape:isstock="true"
       inkscape:collect="always">
      <path
         transform="matrix(-0.4,0,0,-0.4,-4,0)"
         style="fill:#000000;fill-opacity:1;fill-rule:evenodd;stroke:#000000;stroke-width:1pt;stroke-opacity:1"
         d="M 0,0 5,-5 -12.5,0 5,5 Z"
         id="path13687" />
    </marker>
    <marker
       style="overflow:visible"
       id="marker13149"
       refX="0"
       refY="0"
       orient="auto"
       inkscape:stockid="Arrow1Mend"
       inkscape:isstock="true">
      <path
         transform="matrix(-0.4,0,0,-0.4,-4,0)"
         style="fill:#000000;fill-opacity:1;fill-rule:evenodd;stroke:#000000;stroke-width:1pt;stroke-opacity:1"
         d="M 0,0 5,-5 -12.5,0 5,5 Z"
         id="path13147" />
    </marker>
    <marker
       style="overflow:visible"
       id="marker12853"
       refX="0"
       refY="0"
       orient="auto"
       inkscape:stockid="Arrow1Mend"
       inkscape:isstock="true"
       inkscape:collect="always">
      <path
         transform="matrix(-0.4,0,0,-0.4,-4,0)"
         style="fill:#000000;fill-opacity:1;fill-rule:evenodd;stroke:#000000;stroke-width:1pt;stroke-opacity:1"
         d="M 0,0 5,-5 -12.5,0 5,5 Z"
         id="path12851" />
    </marker>
    <marker
       style="overflow:visible"
       id="marker12565"
       refX="0"
       refY="0"
       orient="auto"
       inkscape:stockid="Arrow1Mend"
       inkscape:isstock="true">
      <path
         transform="matrix(-0.4,0,0,-0.4,-4,0)"
         style="fill:#000000;fill-opacity:1;fill-rule:evenodd;stroke:#000000;stroke-width:1pt;stroke-opacity:1"
         d="M 0,0 5,-5 -12.5,0 5,5 Z"
         id="path12563" />
    </marker>
    <marker
       style="overflow:visible"
       id="marker12297"
       refX="0"
       refY="0"
       orient="auto"
       inkscape:stockid="Arrow1Mend"
       inkscape:isstock="true"
       inkscape:collect="always">
      <path
         transform="matrix(-0.4,0,0,-0.4,-4,0)"
         style="fill:#000000;fill-opacity:1;fill-rule:evenodd;stroke:#000000;stroke-width:1pt;stroke-opacity:1"
         d="M 0,0 5,-5 -12.5,0 5,5 Z"
         id="path12295" />
    </marker>
    <marker
       style="overflow:visible"
       id="marker12007"
       refX="0"
       refY="0"
       orient="auto"
       inkscape:stockid="Arrow1Mend"
       inkscape:isstock="true">
      <path
         transform="matrix(-0.4,0,0,-0.4,-4,0)"
         style="fill:#000000;fill-opacity:1;fill-rule:evenodd;stroke:#000000;stroke-width:1pt;stroke-opacity:1"
         d="M 0,0 5,-5 -12.5,0 5,5 Z"
         id="path12005" />
    </marker>
    <marker
       style="overflow:visible"
       id="marker11705"
       refX="0"
       refY="0"
       orient="auto"
       inkscape:stockid="Arrow1Mend"
       inkscape:isstock="true">
      <path
         transform="matrix(-0.4,0,0,-0.4,-4,0)"
         style="fill:#000000;fill-opacity:1;fill-rule:evenodd;stroke:#000000;stroke-width:1pt;stroke-opacity:1"
         d="M 0,0 5,-5 -12.5,0 5,5 Z"
         id="path11703" />
    </marker>
    <marker
       style="overflow:visible"
       id="marker9759"
       refX="0"
       refY="0"
       orient="auto"
       inkscape:stockid="Arrow1Mend"
       inkscape:isstock="true">
      <path
         transform="matrix(-0.4,0,0,-0.4,-4,0)"
         style="fill:#000000;fill-opacity:1;fill-rule:evenodd;stroke:#000000;stroke-width:1pt;stroke-opacity:1"
         d="M 0,0 5,-5 -12.5,0 5,5 Z"
         id="path9757" />
    </marker>
    <marker
       style="overflow:visible"
       id="marker9497"
       refX="0"
       refY="0"
       orient="auto"
       inkscape:stockid="Arrow1Mend"
       inkscape:isstock="true"
       inkscape:collect="always">
      <path
         transform="matrix(-0.4,0,0,-0.4,-4,0)"
         style="fill:#000000;fill-opacity:1;fill-rule:evenodd;stroke:#000000;stroke-width:1pt;stroke-opacity:1"
         d="M 0,0 5,-5 -12.5,0 5,5 Z"
         id="path9495" />
    </marker>
    <marker
       style="overflow:visible"
       id="marker8523"
       refX="0"
       refY="0"
       orient="auto"
       inkscape:stockid="Arrow1Mend"
       inkscape:isstock="true">
      <path
         transform="matrix(-0.4,0,0,-0.4,-4,0)"
         style="fill:#000000;fill-opacity:1;fill-rule:evenodd;stroke:#000000;stroke-width:1pt;stroke-opacity:1"
         d="M 0,0 5,-5 -12.5,0 5,5 Z"
         id="path8521" />
    </marker>
    <marker
       style="overflow:visible"
       id="marker8181"
       refX="0"
       refY="0"
       orient="auto"
       inkscape:stockid="Arrow1Mend"
       inkscape:isstock="true">
      <path
         transform="matrix(-0.4,0,0,-0.4,-4,0)"
         style="fill:#000000;fill-opacity:1;fill-rule:evenodd;stroke:#000000;stroke-width:1pt;stroke-opacity:1"
         d="M 0,0 5,-5 -12.5,0 5,5 Z"
         id="path8179" />
    </marker>
    <marker
       style="overflow:visible"
       id="marker6639"
       refX="0"
       refY="0"
       orient="auto"
       inkscape:stockid="Arrow1Mend"
       inkscape:isstock="true">
      <path
         transform="matrix(-0.4,0,0,-0.4,-4,0)"
         style="fill:#000000;fill-opacity:1;fill-rule:evenodd;stroke:#000000;stroke-width:1pt;stroke-opacity:1"
         d="M 0,0 5,-5 -12.5,0 5,5 Z"
         id="path6637" />
    </marker>
    <marker
       style="overflow:visible"
       id="marker6221"
       refX="0"
       refY="0"
       orient="auto"
       inkscape:stockid="Arrow1Mend"
       inkscape:isstock="true">
      <path
         transform="matrix(-0.4,0,0,-0.4,-4,0)"
         style="fill:#000000;fill-opacity:1;fill-rule:evenodd;stroke:#000000;stroke-width:1pt;stroke-opacity:1"
         d="M 0,0 5,-5 -12.5,0 5,5 Z"
         id="path6219" />
    </marker>
    <marker
       style="overflow:visible"
       id="marker5767"
       refX="0"
       refY="0"
       orient="auto"
       inkscape:stockid="Arrow1Mend"
       inkscape:isstock="true"
       inkscape:collect="always">
      <path
         transform="matrix(-0.4,0,0,-0.4,-4,0)"
         style="fill:#000000;fill-opacity:1;fill-rule:evenodd;stroke:#000000;stroke-width:1pt;stroke-opacity:1"
         d="M 0,0 5,-5 -12.5,0 5,5 Z"
         id="path5765" />
    </marker>
    <marker
       style="overflow:visible"
       id="marker5031"
       refX="0"
       refY="0"
       orient="auto"
       inkscape:stockid="Arrow1Mend"
       inkscape:isstock="true">
      <path
         transform="matrix(-0.4,0,0,-0.4,-4,0)"
         style="fill:#000000;fill-opacity:1;fill-rule:evenodd;stroke:#000000;stroke-width:1pt;stroke-opacity:1"
         d="M 0,0 5,-5 -12.5,0 5,5 Z"
         id="path5029" />
    </marker>
    <marker
       style="overflow:visible"
       id="marker4401"
       refX="0"
       refY="0"
       orient="auto"
       inkscape:stockid="Arrow1Mend"
       inkscape:isstock="true">
      <path
         transform="matrix(-0.4,0,0,-0.4,-4,0)"
         style="fill:#000000;fill-opacity:1;fill-rule:evenodd;stroke:#000000;stroke-width:1pt;stroke-opacity:1"
         d="M 0,0 5,-5 -12.5,0 5,5 Z"
         id="path4399" />
    </marker>
    <marker
       style="overflow:visible"
       id="marker4187"
       refX="0"
       refY="0"
       orient="auto"
       inkscape:stockid="Arrow1Mend"
       inkscape:isstock="true"
       inkscape:collect="always">
      <path
         transform="matrix(-0.4,0,0,-0.4,-4,0)"
         style="fill:#000000;fill-opacity:1;fill-rule:evenodd;stroke:#000000;stroke-width:1pt;stroke-opacity:1"
         d="M 0,0 5,-5 -12.5,0 5,5 Z"
         id="path4185" />
    </marker>
    <marker
       style="overflow:visible"
       id="marker3765"
       refX="0"
       refY="0"
       orient="auto"
       inkscape:stockid="Arrow1Mend"
       inkscape:isstock="true">
      <path
         transform="matrix(-0.4,0,0,-0.4,-4,0)"
         style="fill:#000000;fill-opacity:1;fill-rule:evenodd;stroke:#000000;stroke-width:1pt;stroke-opacity:1"
         d="M 0,0 5,-5 -12.5,0 5,5 Z"
         id="path3763" />
    </marker>
    <marker
       style="overflow:visible"
       id="marker3563"
       refX="0"
       refY="0"
       orient="auto"
       inkscape:stockid="Arrow1Mend"
       inkscape:isstock="true"
       inkscape:collect="always">
      <path
         transform="matrix(-0.4,0,0,-0.4,-4,0)"
         style="fill:#000000;fill-opacity:1;fill-rule:evenodd;stroke:#000000;stroke-width:1pt;stroke-opacity:1"
         d="M 0,0 5,-5 -12.5,0 5,5 Z"
         id="path3561" />
    </marker>
    <marker
       style="overflow:visible"
       id="marker3375"
       refX="0"
       refY="0"
       orient="auto"
       inkscape:stockid="Arrow1Mend"
       inkscape:isstock="true">
      <path
         transform="matrix(-0.4,0,0,-0.4,-4,0)"
         style="fill:#000000;fill-opacity:1;fill-rule:evenodd;stroke:#000000;stroke-width:1pt;stroke-opacity:1"
         d="M 0,0 5,-5 -12.5,0 5,5 Z"
         id="path3373" />
    </marker>
    <marker
       style="overflow:visible"
       id="marker2619"
       refX="0"
       refY="0"
       orient="auto"
       inkscape:stockid="Arrow1Mend"
       inkscape:isstock="true">
      <path
         transform="matrix(-0.4,0,0,-0.4,-4,0)"
         style="fill:#000000;fill-opacity:1;fill-rule:evenodd;stroke:#000000;stroke-width:1pt;stroke-opacity:1"
         d="M 0,0 5,-5 -12.5,0 5,5 Z"
         id="path2617" />
    </marker>
    <marker
       style="overflow:visible"
       id="marker2457"
       refX="0"
       refY="0"
       orient="auto"
       inkscape:stockid="Arrow1Mend"
       inkscape:isstock="true"
       inkscape:collect="always">
      <path
         transform="matrix(-0.4,0,0,-0.4,-4,0)"
         style="fill:#000000;fill-opacity:1;fill-rule:evenodd;stroke:#000000;stroke-width:1pt;stroke-opacity:1"
         d="M 0,0 5,-5 -12.5,0 5,5 Z"
         id="path2455" />
    </marker>
    <marker
       style="overflow:visible"
       id="marker2315"
       refX="0"
       refY="0"
       orient="auto"
       inkscape:stockid="Arrow1Mend"
       inkscape:isstock="true">
      <path
         transform="matrix(-0.4,0,0,-0.4,-4,0)"
         style="fill:#000000;fill-opacity:1;fill-rule:evenodd;stroke:#000000;stroke-width:1pt;stroke-opacity:1"
         d="M 0,0 5,-5 -12.5,0 5,5 Z"
         id="path2313" />
    </marker>
    <marker
       style="overflow:visible"
       id="marker2049"
       refX="0"
       refY="0"
       orient="auto"
       inkscape:stockid="Arrow1Mend"
       inkscape:isstock="true"
       inkscape:collect="always">
      <path
         transform="matrix(-0.4,0,0,-0.4,-4,0)"
         style="fill:#000000;fill-opacity:1;fill-rule:evenodd;stroke:#000000;stroke-width:1pt;stroke-opacity:1"
         d="M 0,0 5,-5 -12.5,0 5,5 Z"
         id="path2047" />
    </marker>
    <marker
       style="overflow:visible"
       id="marker1671"
       refX="0"
       refY="0"
       orient="auto"
       inkscape:stockid="Arrow1Mend"
       inkscape:isstock="true">
      <path
         transform="matrix(-0.4,0,0,-0.4,-4,0)"
         style="fill:#000000;fill-opacity:1;fill-rule:evenodd;stroke:#000000;stroke-width:1pt;stroke-opacity:1"
         d="M 0,0 5,-5 -12.5,0 5,5 Z"
         id="path1669" />
    </marker>
    <marker
       style="overflow:visible"
       id="marker1583"
       refX="0"
       refY="0"
       orient="auto"
       inkscape:stockid="Arrow1Mend"
       inkscape:isstock="true"
       inkscape:collect="always">
      <path
         transform="matrix(-0.4,0,0,-0.4,-4,0)"
         style="fill:#000000;fill-opacity:1;fill-rule:evenodd;stroke:#000000;stroke-width:1pt;stroke-opacity:1"
         d="M 0,0 5,-5 -12.5,0 5,5 Z"
         id="path1581" />
    </marker>
    <marker
       style="overflow:visible"
       id="marker1425"
       refX="0"
       refY="0"
       orient="auto"
       inkscape:stockid="Arrow1Mend"
       inkscape:isstock="true"
       inkscape:collect="always">
      <path
         transform="matrix(-0.4,0,0,-0.4,-4,0)"
         style="fill:#000000;fill-opacity:1;fill-rule:evenodd;stroke:#000000;stroke-width:1pt;stroke-opacity:1"
         d="M 0,0 5,-5 -12.5,0 5,5 Z"
         id="path1423" />
    </marker>
    <marker
       style="overflow:visible"
       id="marker1361"
       refX="0"
       refY="0"
       orient="auto"
       inkscape:stockid="Arrow1Mend"
       inkscape:isstock="true"
       inkscape:collect="always">
      <path
         transform="matrix(-0.4,0,0,-0.4,-4,0)"
         style="fill:#000000;fill-opacity:1;fill-rule:evenodd;stroke:#000000;stroke-width:1pt;stroke-opacity:1"
         d="M 0,0 5,-5 -12.5,0 5,5 Z"
         id="path1359" />
    </marker>
    <marker
       style="overflow:visible"
       id="marker1305"
       refX="0"
       refY="0"
       orient="auto"
       inkscape:stockid="Arrow1Mend"
       inkscape:isstock="true"
       inkscape:collect="always">
      <path
         transform="matrix(-0.4,0,0,-0.4,-4,0)"
         style="fill:#000000;fill-opacity:1;fill-rule:evenodd;stroke:#000000;stroke-width:1pt;stroke-opacity:1"
         d="M 0,0 5,-5 -12.5,0 5,5 Z"
         id="path1303" />
    </marker>
    <marker
       style="overflow:visible"
       id="marker1257"
       refX="0"
       refY="0"
       orient="auto"
       inkscape:stockid="Arrow1Mend"
       inkscape:isstock="true"
       inkscape:collect="always">
      <path
         transform="matrix(-0.4,0,0,-0.4,-4,0)"
         style="fill:#000000;fill-opacity:1;fill-rule:evenodd;stroke:#000000;stroke-width:1pt;stroke-opacity:1"
         d="M 0,0 5,-5 -12.5,0 5,5 Z"
         id="path1255" />
    </marker>
    <marker
       style="overflow:visible"
       id="marker1211"
       refX="0"
       refY="0"
       orient="auto"
       inkscape:stockid="Arrow1Mend"
       inkscape:isstock="true"
       inkscape:collect="always">
      <path
         transform="matrix(-0.4,0,0,-0.4,-4,0)"
         style="fill:#000000;fill-opacity:1;fill-rule:evenodd;stroke:#000000;stroke-width:1pt;stroke-opacity:1"
         d="M 0,0 5,-5 -12.5,0 5,5 Z"
         id="path1209" />
    </marker>
    <marker
       style="overflow:visible"
       id="Arrow1Mend"
       refX="0"
       refY="0"
       orient="auto"
       inkscape:stockid="Arrow1Mend"
       inkscape:isstock="true"
       inkscape:collect="always">
      <path
         transform="matrix(-0.4,0,0,-0.4,-4,0)"
         style="fill:#000000;fill-opacity:1;fill-rule:evenodd;stroke:#000000;stroke-width:1pt;stroke-opacity:1"
         d="M 0,0 5,-5 -12.5,0 5,5 Z"
         id="path916" />
    </marker>
  </defs>
  <sodipodi:namedview
     id="base"
     pagecolor="#ffffff"
     bordercolor="#666666"
     borderopacity="1.0"
     inkscape:pageopacity="0.0"
     inkscape:pageshadow="2"
     inkscape:zoom="0.70710678"
     inkscape:cx="469.613"
     inkscape:cy="443.91951"
     inkscape:document-units="mm"
     inkscape:current-layer="layer1"
     inkscape:document-rotation="0"
     showgrid="false"
     inkscape:window-width="1854"
     inkscape:window-height="987"
     inkscape:window-x="0"
     inkscape:window-y="0"
     inkscape:window-maximized="1"
     fit-margin-top="10"
     fit-margin-left="10"
     fit-margin-right="10"
     fit-margin-bottom="10" />
  <metadata
     id="metadata5">
    <rdf:RDF>
      <cc:Work
         rdf:about="">
        <dc:format>image/svg+xml</dc:format>
        <dc:type
           rdf:resource="http://purl.org/dc/dcmitype/StillImage" />
        <dc:title></dc:title>
      </cc:Work>
    </rdf:RDF>
  </metadata>
  <g
     inkscape:label="Layer 1"
     inkscape:groupmode="layer"
     id="layer1"
     transform="translate(12.55695,-27.636199)">
    <path
       style="fill:none;stroke:#000000;stroke-width:0.465;stroke-linecap:butt;stroke-linejoin:miter;stroke-miterlimit:4;stroke-dasharray:none;stroke-opacity:1;marker-end:url(#marker14359)"
       d="M 194.10303,37.636199 V 196.31156 l -5.29167,2.61394 5.29167,2.61394 5.29167,2.61394 -5.29167,2.61395 v 50.74739"
       id="path14317"
       sodipodi:nodetypes="ccccccc" />
    <path
       style="fill:none;stroke:#999999;stroke-width:0.264583px;stroke-linecap:butt;stroke-linejoin:miter;stroke-opacity:1"
       d="M 4.0038901,172.91869 H 183.99704"
       id="path14313"
       sodipodi:nodetypes="cc" />
    <path
       style="fill:none;stroke:#999999;stroke-width:0.264583px;stroke-linecap:butt;stroke-linejoin:miter;stroke-opacity:1"
       d="M 4.0038901,93.543648 H 183.99704"
       id="path14311"
       sodipodi:nodetypes="cc" />
    <path
       style="fill:none;stroke:#999999;stroke-width:0.264583px;stroke-linecap:butt;stroke-linejoin:miter;stroke-opacity:1"
       d="M 4.0038901,45.918645 H 183.99704"
       id="path7057"
       sodipodi:nodetypes="cc" />
    <path
       style="fill:none;stroke:#999999;stroke-width:0.264583px;stroke-linecap:butt;stroke-linejoin:miter;stroke-opacity:1"
       d="M 4.0038901,61.793646 H 183.99704"
       id="path7059"
       sodipodi:nodetypes="cc" />
    <rect
       style="opacity:1;fill:#ffffff;stroke:none;stroke-width:0.264999;stroke-miterlimit:4;stroke-dasharray:none"
       id="rect14283"
       width="16.730761"
       height="5.7877603"
       x="59.355553"
       y="58.654823" />
    <path
       style="fill:none;stroke:#999999;stroke-width:0.264583px;stroke-linecap:butt;stroke-linejoin:miter;stroke-opacity:1"
       d="M 4.0038901,77.668647 H 183.99704"
       id="path7061"
       sodipodi:nodetypes="cc" />
    <path
       style="fill:none;stroke:#999999;stroke-width:0.264583px;stroke-linecap:butt;stroke-linejoin:miter;stroke-opacity:1"
       d="M 4.0038901,109.41865 H 183.99704"
       id="path7063"
       sodipodi:nodetypes="cc" />
    <rect
       style="opacity:1;fill:#ffffff;stroke:none;stroke-width:0.264999;stroke-miterlimit:4;stroke-dasharray:none"
       id="rect14297"
       width="16.730761"
       height="5.7877603"
       x="74.172302"
       y="106.27979" />
    <path
       style="fill:none;stroke:#999999;stroke-width:0.264583px;stroke-linecap:butt;stroke-linejoin:miter;stroke-opacity:1"
       d="M 4.0038901,125.29366 H 183.99704"
       id="path7065"
       sodipodi:nodetypes="cc" />
    <path
       style="fill:none;stroke:#999999;stroke-width:0.264583px;stroke-linecap:butt;stroke-linejoin:miter;stroke-opacity:1"
       d="M 4.0038901,141.16867 H 183.99704"
       id="path7067"
       sodipodi:nodetypes="cc" />
    <path
       style="fill:none;stroke:#999999;stroke-width:0.264583px;stroke-linecap:butt;stroke-linejoin:miter;stroke-opacity:1"
       d="M 4.0038901,157.04368 H 183.99704"
       id="path7069"
       sodipodi:nodetypes="cc" />
    <rect
       style="opacity:1;fill:#ffffff;stroke:none;stroke-width:0.264999;stroke-miterlimit:4;stroke-dasharray:none"
       id="rect14295"
       width="16.730761"
       height="5.7877603"
       x="155.1348"
       y="153.90482" />
    <path
       style="fill:none;stroke:#999999;stroke-width:0.264583px;stroke-linecap:butt;stroke-linejoin:miter;stroke-opacity:1"
       d="M 4.0038901,188.7937 H 183.99704"
       id="path7107"
       sodipodi:nodetypes="cc" />
    <rect
       style="opacity:1;fill:#ffffff;stroke:none;stroke-width:0.264999;stroke-miterlimit:4;stroke-dasharray:none"
       id="rect14303"
       width="16.730761"
       height="5.7877603"
       x="74.172302"
       y="185.65485" />
    <path
       style="fill:none;stroke:#999999;stroke-width:0.264583px;stroke-linecap:butt;stroke-linejoin:miter;stroke-opacity:1"
       d="M 4.0038901,215.25205 H 183.99704"
       id="path7109"
       sodipodi:nodetypes="cc" />
    <path
       style="fill:none;stroke:#999999;stroke-width:0.264583px;stroke-linecap:butt;stroke-linejoin:miter;stroke-opacity:1"
       d="M 4.0038901,231.12706 H 183.99704"
       id="path7111"
       sodipodi:nodetypes="cc" />
    <rect
       style="opacity:1;fill:#ffffff;stroke:none;stroke-width:0.264999;stroke-miterlimit:4;stroke-dasharray:none"
       id="rect14305"
       width="16.730761"
       height="5.7877603"
       x="73.113968"
       y="227.98822" />
    <path
       style="fill:none;stroke:#999999;stroke-width:0.264583px;stroke-linecap:butt;stroke-linejoin:miter;stroke-opacity:1"
       d="M 4.0038901,247.00207 H 183.99704"
       id="path7113"
       sodipodi:nodetypes="cc" />
    <rect
       style="opacity:1;fill:#ffffff;stroke:none;stroke-width:0.264999;stroke-miterlimit:4;stroke-dasharray:none"
       id="rect14307"
       width="16.730761"
       height="5.7877603"
       x="73.113968"
       y="243.86324" />
    <text
       xml:space="preserve"
       style="font-size:5.64444px;line-height:1.25;font-family:Aller;-inkscape-font-specification:Aller;letter-spacing:0px;word-spacing:0px;stroke-width:0.264583"
       x="73.730476"
       y="232.84138"
       id="text12"><tspan
         sodipodi:role="line"
         id="tspan10"
         x="73.730476"
         y="232.84138"
         style="font-style:normal;font-variant:normal;font-weight:normal;font-stretch:normal;font-family:'CMU Sans Serif';-inkscape-font-specification:'CMU Sans Serif';stroke-width:0.264583">Pres-2</tspan></text>
    <text
       xml:space="preserve"
       style="font-size:5.64444px;line-height:1.25;font-family:Aller;-inkscape-font-specification:Aller;letter-spacing:0px;word-spacing:0px;stroke-width:0.264583"
       x="73.730476"
       y="248.7164"
       id="text16"><tspan
         sodipodi:role="line"
         id="tspan14"
         x="73.730476"
         y="248.7164"
         style="font-style:normal;font-variant:normal;font-weight:normal;font-stretch:normal;font-family:'CMU Sans Serif';-inkscape-font-specification:'CMU Sans Serif';stroke-width:0.264583">Pres-3</tspan></text>
    <rect
       style="opacity:1;fill:#ffffff;stroke:none;stroke-width:0.264999;stroke-miterlimit:4;stroke-dasharray:none"
       id="rect14299"
       width="16.730761"
       height="5.7877603"
       x="120.73895"
       y="185.65485" />
    <text
       xml:space="preserve"
       style="font-size:5.64444px;line-height:1.25;font-family:Aller;-inkscape-font-specification:Aller;letter-spacing:0px;word-spacing:0px;stroke-width:0.264583"
       x="121.88464"
       y="190.50801"
       id="text20"><tspan
         sodipodi:role="line"
         id="tspan18"
         x="121.88464"
         y="190.50801"
         style="font-style:normal;font-variant:normal;font-weight:normal;font-stretch:normal;font-family:'CMU Sans Serif';-inkscape-font-specification:'CMU Sans Serif';stroke-width:0.264583">The-1</tspan></text>
    <rect
       style="opacity:1;fill:#ffffff;stroke:none;stroke-width:0.264999;stroke-miterlimit:4;stroke-dasharray:none"
       id="rect14301"
       width="16.730761"
       height="5.7877603"
       x="120.73895"
       y="212.1132" />
    <text
       xml:space="preserve"
       style="font-size:5.64444px;line-height:1.25;font-family:Aller;-inkscape-font-specification:Aller;letter-spacing:0px;word-spacing:0px;stroke-width:0.264583"
       x="121.88464"
       y="216.96637"
       id="text24"><tspan
         sodipodi:role="line"
         id="tspan22"
         x="121.88464"
         y="216.96637"
         style="font-style:normal;font-variant:normal;font-weight:normal;font-stretch:normal;font-family:'CMU Sans Serif';-inkscape-font-specification:'CMU Sans Serif';stroke-width:0.264583">The-2</tspan></text>
    <rect
       style="opacity:1;fill:#ffffff;stroke:none;stroke-width:0.264999;stroke-miterlimit:4;stroke-dasharray:none"
       id="rect14273"
       width="16.730761"
       height="5.7877603"
       x="16.493048"
       y="42.779819" />
    <text
       xml:space="preserve"
       style="font-size:5.64444px;line-height:1.25;font-family:Aller;-inkscape-font-specification:Aller;letter-spacing:0px;word-spacing:0px;stroke-width:0.264583"
       x="18.697117"
       y="47.632973"
       id="text28"><tspan
         sodipodi:role="line"
         id="tspan26"
         x="18.697117"
         y="47.632973"
         style="font-style:normal;font-variant:normal;font-weight:normal;font-stretch:normal;font-family:'CMU Sans Serif';-inkscape-font-specification:'CMU Sans Serif';stroke-width:0.264583">Ri1-1</tspan></text>
    <text
       xml:space="preserve"
       style="font-size:5.64444px;line-height:1.25;font-family:Aller;-inkscape-font-specification:Aller;letter-spacing:0px;word-spacing:0px;stroke-width:0.264583"
       x="61.559628"
       y="63.507977"
       id="text32"><tspan
         sodipodi:role="line"
         id="tspan30"
         x="61.559628"
         y="63.507977"
         style="font-style:normal;font-variant:normal;font-weight:normal;font-stretch:normal;font-family:'CMU Sans Serif';-inkscape-font-specification:'CMU Sans Serif';stroke-width:0.264583">Ri1-2</tspan></text>
    <rect
       style="opacity:1;fill:#ffffff;stroke:none;stroke-width:0.264999;stroke-miterlimit:4;stroke-dasharray:none"
       id="rect14279"
       width="16.730761"
       height="5.7877603"
       x="88.988876"
       y="42.779819" />
    <text
       xml:space="preserve"
       style="font-size:5.64444px;line-height:1.25;font-family:Aller;-inkscape-font-specification:Aller;letter-spacing:0px;word-spacing:0px;stroke-width:0.264583"
       x="90.663788"
       y="47.632973"
       id="text36"><tspan
         sodipodi:role="line"
         id="tspan34"
         x="90.663788"
         y="47.632973"
         style="font-style:normal;font-variant:normal;font-weight:normal;font-stretch:normal;font-family:'CMU Sans Serif';-inkscape-font-specification:'CMU Sans Serif';stroke-width:0.264583">Ri2-1</tspan></text>
    <rect
       style="opacity:1;fill:#ffffff;stroke:none;stroke-width:0.264999;stroke-miterlimit:4;stroke-dasharray:none"
       id="rect14281"
       width="16.730761"
       height="5.7877603"
       x="88.988876"
       y="58.654823" />
    <text
       xml:space="preserve"
       style="font-size:5.64444px;line-height:1.25;font-family:Aller;-inkscape-font-specification:Aller;letter-spacing:0px;word-spacing:0px;stroke-width:0.264583"
       x="90.663788"
       y="63.507984"
       id="text40"><tspan
         sodipodi:role="line"
         id="tspan38"
         x="90.663788"
         y="63.507984"
         style="font-style:normal;font-variant:normal;font-weight:normal;font-stretch:normal;font-family:'CMU Sans Serif';-inkscape-font-specification:'CMU Sans Serif';stroke-width:0.264583">Ri2-2</tspan></text>
    <rect
       style="opacity:1;fill:#ffffff;stroke:none;stroke-width:0.264999;stroke-miterlimit:4;stroke-dasharray:none"
       id="rect14271"
       width="16.730761"
       height="5.7877603"
       x="-2.5569499"
       y="66.592323" />
    <text
       xml:space="preserve"
       style="font-size:5.64444px;line-height:1.25;font-family:Aller;-inkscape-font-specification:Aller;letter-spacing:0px;word-spacing:0px;stroke-width:0.264583"
       x="-1.9403613"
       y="71.44548"
       id="text44"><tspan
         sodipodi:role="line"
         id="tspan42"
         x="-1.9403613"
         y="71.44548"
         style="font-style:normal;font-variant:normal;font-weight:normal;font-stretch:normal;font-family:'CMU Sans Serif';-inkscape-font-specification:'CMU Sans Serif';stroke-width:0.264583">Pres-1</tspan></text>
    <rect
       style="opacity:1;fill:#ffffff;stroke:none;stroke-width:0.264999;stroke-miterlimit:4;stroke-dasharray:none"
       id="rect14285"
       width="16.730761"
       height="5.7877603"
       x="129.73476"
       y="74.529823" />
    <text
       xml:space="preserve"
       style="font-size:5.64444px;line-height:1.25;font-family:Aller;-inkscape-font-specification:Aller;letter-spacing:0px;word-spacing:0px;stroke-width:0.264583"
       x="131.93878"
       y="79.382988"
       id="text48"><tspan
         sodipodi:role="line"
         id="tspan46"
         x="131.93878"
         y="79.382988"
         style="font-style:normal;font-variant:normal;font-weight:normal;font-stretch:normal;font-family:'CMU Sans Serif';-inkscape-font-specification:'CMU Sans Serif';stroke-width:0.264583">Ri3-1</tspan></text>
    <rect
       style="opacity:1;fill:#ffffff;stroke:none;stroke-width:0.264999;stroke-miterlimit:4;stroke-dasharray:none"
       id="rect14287"
       width="16.730761"
       height="5.7877603"
       x="129.73476"
       y="106.2798" />
    <text
       xml:space="preserve"
       style="font-size:5.64444px;line-height:1.25;font-family:Aller;-inkscape-font-specification:Aller;letter-spacing:0px;word-spacing:0px;stroke-width:0.264583"
       x="131.40962"
       y="111.13297"
       id="text52"><tspan
         sodipodi:role="line"
         id="tspan50"
         x="131.40962"
         y="111.13297"
         style="font-style:normal;font-variant:normal;font-weight:normal;font-stretch:normal;font-family:'CMU Sans Serif';-inkscape-font-specification:'CMU Sans Serif';stroke-width:0.264583">Ri3-2</tspan></text>
    <rect
       style="opacity:1;fill:#ffffff;stroke:none;stroke-width:0.264999;stroke-miterlimit:4;stroke-dasharray:none"
       id="rect14291"
       width="16.730761"
       height="5.7877603"
       x="155.1348"
       y="106.2798" />
    <text
       xml:space="preserve"
       style="font-size:5.64444px;line-height:1.25;font-family:Aller;-inkscape-font-specification:Aller;letter-spacing:0px;word-spacing:0px;stroke-width:0.264583"
       x="156.28058"
       y="111.13297"
       id="text56"><tspan
         sodipodi:role="line"
         id="tspan54"
         x="156.28058"
         y="111.13297"
         style="font-style:normal;font-variant:normal;font-weight:normal;font-stretch:normal;font-family:'CMU Sans Serif';-inkscape-font-specification:'CMU Sans Serif';stroke-width:0.264583">Re1-1</tspan></text>
    <rect
       style="opacity:1;fill:#ffffff;stroke:none;stroke-width:0.264999;stroke-miterlimit:4;stroke-dasharray:none"
       id="rect14293"
       width="16.730761"
       height="5.7877603"
       x="155.1348"
       y="122.15479" />
    <text
       xml:space="preserve"
       style="font-size:5.64444px;line-height:1.25;font-family:Aller;-inkscape-font-specification:Aller;letter-spacing:0px;word-spacing:0px;stroke-width:0.264583"
       x="156.28058"
       y="127.00797"
       id="text60"><tspan
         sodipodi:role="line"
         id="tspan58"
         x="156.28058"
         y="127.00797"
         style="font-style:normal;font-variant:normal;font-weight:normal;font-stretch:normal;font-family:'CMU Sans Serif';-inkscape-font-specification:'CMU Sans Serif';stroke-width:0.264583">Re2-1</tspan></text>
    <text
       xml:space="preserve"
       style="font-size:5.64444px;line-height:1.25;font-family:Aller;-inkscape-font-specification:Aller;letter-spacing:0px;word-spacing:0px;stroke-width:0.264583"
       x="156.28058"
       y="158.758"
       id="text64"><tspan
         sodipodi:role="line"
         id="tspan62"
         x="156.28058"
         y="158.758"
         style="font-style:normal;font-variant:normal;font-weight:normal;font-stretch:normal;font-family:'CMU Sans Serif';-inkscape-font-specification:'CMU Sans Serif';stroke-width:0.264583">Re2-2</tspan></text>
    <text
       xml:space="preserve"
       style="font-size:5.64444px;line-height:1.25;font-family:Aller;-inkscape-font-specification:Aller;letter-spacing:0px;word-spacing:0px;stroke-width:0.264583"
       x="76.905457"
       y="111.13297"
       id="text68"><tspan
         sodipodi:role="line"
         id="tspan66"
         x="76.905457"
         y="111.13297"
         style="font-style:normal;font-variant:normal;font-weight:normal;font-stretch:normal;font-family:'CMU Sans Serif';-inkscape-font-specification:'CMU Sans Serif';stroke-width:0.264583">De-1</tspan></text>
    <text
       xml:space="preserve"
       style="font-size:5.64444px;line-height:1.25;font-family:Aller;-inkscape-font-specification:Aller;letter-spacing:0px;word-spacing:0px;stroke-width:0.264583"
       x="76.905457"
       y="190.50803"
       id="text72"><tspan
         sodipodi:role="line"
         id="tspan70"
         x="76.905457"
         y="190.50803"
         style="font-style:normal;font-variant:normal;font-weight:normal;font-stretch:normal;font-family:'CMU Sans Serif';-inkscape-font-specification:'CMU Sans Serif';stroke-width:0.264583">De-2</tspan></text>
    <rect
       style="opacity:1;fill:#ffffff;stroke:none;stroke-width:0.264999;stroke-miterlimit:4;stroke-dasharray:none"
       id="rect14289"
       width="16.730761"
       height="5.7877603"
       x="129.73476"
       y="138.0298" />
    <text
       xml:space="preserve"
       style="font-size:5.64444px;line-height:1.25;font-family:Aller;-inkscape-font-specification:Aller;letter-spacing:0px;word-spacing:0px;stroke-width:0.264583"
       x="131.40962"
       y="142.88298"
       id="text76"><tspan
         sodipodi:role="line"
         id="tspan74"
         x="131.40962"
         y="142.88298"
         style="font-style:normal;font-variant:normal;font-weight:normal;font-stretch:normal;font-family:'CMU Sans Serif';-inkscape-font-specification:'CMU Sans Serif';stroke-width:0.264583">De3-1</tspan></text>
    <path
       style="fill:none;stroke:#000000;stroke-width:0.265;stroke-linecap:butt;stroke-linejoin:miter;stroke-miterlimit:4;stroke-dasharray:none;stroke-opacity:1;marker-end:url(#Arrow1Mend)"
       d="M 6.9999048,74.359578 V 140.90303 L 74.204071,227.42089"
       id="path82"
       sodipodi:nodetypes="ccc" />
    <path
       style="fill:none;stroke:#000000;stroke-width:0.265;stroke-linecap:butt;stroke-linejoin:miter;stroke-miterlimit:4;stroke-dasharray:none;stroke-opacity:1;marker-end:url(#marker1211)"
       d="m 163.63324,112.98876 v 8.59882"
       id="path1207"
       sodipodi:nodetypes="cc" />
    <path
       style="fill:none;stroke:#000000;stroke-width:0.265;stroke-linecap:butt;stroke-linejoin:miter;stroke-miterlimit:4;stroke-dasharray:none;stroke-opacity:1;marker-end:url(#marker1257)"
       d="m 163.63325,127.91136 v 23.97277"
       id="path1253"
       sodipodi:nodetypes="cc" />
    <path
       style="fill:none;stroke:#000000;stroke-width:0.265;stroke-linecap:butt;stroke-linejoin:miter;stroke-miterlimit:4;stroke-dasharray:none;stroke-opacity:1;marker-end:url(#marker1305)"
       d="m 137.70408,112.18689 v 25.27569"
       id="path1301"
       sodipodi:nodetypes="cc" />
    <path
       style="fill:none;stroke:#000000;stroke-width:0.264999;stroke-linecap:butt;stroke-linejoin:miter;stroke-miterlimit:4;stroke-dasharray:none;stroke-opacity:1;marker-end:url(#marker1361)"
       d="M 137.70409,81.929215 V 104.12508"
       id="path1357"
       sodipodi:nodetypes="cc" />
    <path
       style="fill:none;stroke:#000000;stroke-width:0.265;stroke-linecap:butt;stroke-linejoin:miter;stroke-miterlimit:4;stroke-dasharray:none;stroke-opacity:1;marker-end:url(#marker1425)"
       d="m 97.487407,49.488746 v 8.598821"
       id="path1421"
       sodipodi:nodetypes="cc" />
    <path
       style="fill:none;stroke:#000000;stroke-width:0.265001;stroke-linecap:butt;stroke-linejoin:miter;stroke-miterlimit:4;stroke-dasharray:none;stroke-opacity:1;marker-end:url(#marker1583)"
       d="M 67.58103,64.779691 80.008483,105.76585"
       id="path1579"
       sodipodi:nodetypes="cc" />
    <path
       style="fill:none;stroke:#000000;stroke-width:0.265;stroke-linecap:butt;stroke-linejoin:miter;stroke-miterlimit:4;stroke-dasharray:none;stroke-opacity:1;marker-end:url(#marker2049)"
       d="m 82.141581,118.28044 v 66.09171"
       id="path2045"
       sodipodi:nodetypes="cc" />
    <path
       style="fill:none;stroke:#000000;stroke-width:0.265;stroke-linecap:butt;stroke-linejoin:miter;stroke-miterlimit:4;stroke-dasharray:none;stroke-opacity:1;marker-end:url(#marker2457)"
       d="M 133.48626,145.78357 86.075088,184.56993"
       id="path2453"
       sodipodi:nodetypes="cc" />
    <path
       style="fill:none;stroke:#000000;stroke-width:0.265;stroke-linecap:butt;stroke-linejoin:miter;stroke-miterlimit:4;stroke-dasharray:none;stroke-opacity:1;marker-end:url(#marker3563)"
       d="m 129.76659,192.89298 v 19.18216"
       id="path3559"
       sodipodi:nodetypes="cc" />
    <path
       style="fill:none;stroke:#000000;stroke-width:0.265;stroke-linecap:butt;stroke-linejoin:miter;stroke-miterlimit:4;stroke-dasharray:none;stroke-opacity:1;marker-end:url(#marker4187)"
       d="m 81.612402,192.89298 v 35.05716"
       id="path4183"
       sodipodi:nodetypes="cc" />
    <path
       style="fill:none;stroke:#000000;stroke-width:0.265;stroke-linecap:butt;stroke-linejoin:miter;stroke-miterlimit:4;stroke-dasharray:none;stroke-opacity:1;marker-end:url(#marker5767)"
       d="m 26.007698,49.350036 49.35969,56.302294"
       id="path5763"
       sodipodi:nodetypes="cc" />
    <path
       style="fill:none;stroke:#000000;stroke-width:0.265001;stroke-linecap:butt;stroke-linejoin:miter;stroke-miterlimit:4;stroke-dasharray:none;stroke-opacity:1;marker-end:url(#marker6639)"
       d="M 97.133975,65.096017 84.864987,105.76908"
       id="path6635"
       sodipodi:nodetypes="cc" />
    <rect
       style="opacity:1;fill:#ffffff;stroke:none;stroke-width:0.264999;stroke-miterlimit:4;stroke-dasharray:none"
       id="rect14347"
       width="16.730761"
       height="6.5478077"
       x="185.29732"
       y="42.779804" />
    <text
       xml:space="preserve"
       style="font-size:5.64444px;line-height:1.25;font-family:Aller;-inkscape-font-specification:Aller;letter-spacing:0px;word-spacing:0px;stroke-width:0.264583"
       x="185.91376"
       y="47.63298"
       id="text7129"><tspan
         sodipodi:role="line"
         id="tspan7127"
         x="185.91376"
         y="47.63298"
         style="font-style:normal;font-variant:normal;font-weight:normal;font-stretch:normal;font-family:'CMU Serif';-inkscape-font-specification:'CMU Serif';stroke-width:0.264583">15<tspan
   style="font-size:65%;baseline-shift:super"
   id="tspan14659">th</tspan> Oct</tspan></text>
    <rect
       style="opacity:1;fill:#ffffff;stroke:none;stroke-width:0.264999;stroke-miterlimit:4;stroke-dasharray:none"
       id="rect14345"
       width="16.730761"
       height="6.5478077"
       x="185.29732"
       y="58.654808" />
    <text
       xml:space="preserve"
       style="font-style:normal;font-variant:normal;font-weight:normal;font-stretch:normal;font-size:5.64444px;line-height:1.25;font-family:'CMU Serif';-inkscape-font-specification:'CMU Serif';letter-spacing:0px;word-spacing:0px;stroke-width:0.264583"
       x="185.91376"
       y="63.507984"
       id="text7133"><tspan
         sodipodi:role="line"
         id="tspan7131"
         x="185.91376"
         y="63.507984"
         style="font-style:normal;font-variant:normal;font-weight:normal;font-stretch:normal;font-family:'CMU Serif';-inkscape-font-specification:'CMU Serif';stroke-width:0.264583">22<tspan
   style="font-size:65%;baseline-shift:super"
   id="tspan14657">nd</tspan> Oct</tspan></text>
    <rect
       style="opacity:1;fill:#ffffff;stroke:none;stroke-width:0.264999;stroke-miterlimit:4;stroke-dasharray:none"
       id="rect14343"
       width="16.730761"
       height="6.5478077"
       x="185.29732"
       y="74.529808" />
    <text
       xml:space="preserve"
       style="font-style:normal;font-variant:normal;font-weight:normal;font-stretch:normal;font-size:5.64444px;line-height:1.25;font-family:'CMU Serif';-inkscape-font-specification:'CMU Serif';letter-spacing:0px;word-spacing:0px;stroke-width:0.264583"
       x="185.91376"
       y="79.38298"
       id="text7137"><tspan
         sodipodi:role="line"
         id="tspan7135"
         x="185.91376"
         y="79.38298"
         style="font-style:normal;font-variant:normal;font-weight:normal;font-stretch:normal;font-family:'CMU Serif';-inkscape-font-specification:'CMU Serif';stroke-width:0.264583">29<tspan
   style="font-size:65%;baseline-shift:super"
   id="tspan14655">th</tspan> Oct</tspan></text>
    <rect
       style="opacity:1;fill:#ffffff;stroke:none;stroke-width:0.264999;stroke-miterlimit:4;stroke-dasharray:none"
       id="rect14341"
       width="16.730761"
       height="6.5478077"
       x="185.29732"
       y="106.27979" />
    <text
       xml:space="preserve"
       style="font-style:normal;font-variant:normal;font-weight:normal;font-stretch:normal;font-size:5.64444px;line-height:1.25;font-family:'CMU Serif';-inkscape-font-specification:'CMU Serif';letter-spacing:0px;word-spacing:0px;stroke-width:0.264583"
       x="185.91376"
       y="111.13297"
       id="text7141"><tspan
         sodipodi:role="line"
         id="tspan7139"
         x="185.91376"
         y="111.13297"
         style="font-style:normal;font-variant:normal;font-weight:normal;font-stretch:normal;font-family:'CMU Serif';-inkscape-font-specification:'CMU Serif';stroke-width:0.264583">12<tspan
   style="font-size:65%;baseline-shift:super"
   id="tspan14653">th</tspan> Nov</tspan></text>
    <rect
       style="opacity:1;fill:#ffffff;stroke:none;stroke-width:0.264999;stroke-miterlimit:4;stroke-dasharray:none"
       id="rect14339"
       width="16.730761"
       height="6.5478077"
       x="185.29732"
       y="122.15479" />
    <text
       xml:space="preserve"
       style="font-style:normal;font-variant:normal;font-weight:normal;font-stretch:normal;font-size:5.64444px;line-height:1.25;font-family:'CMU Serif';-inkscape-font-specification:'CMU Serif';letter-spacing:0px;word-spacing:0px;stroke-width:0.264583"
       x="185.91376"
       y="127.00797"
       id="text7145"><tspan
         sodipodi:role="line"
         id="tspan7143"
         x="185.91376"
         y="127.00797"
         style="font-style:normal;font-variant:normal;font-weight:normal;font-stretch:normal;font-family:'CMU Serif';-inkscape-font-specification:'CMU Serif';stroke-width:0.264583">19<tspan
   style="font-size:65%;baseline-shift:super"
   id="tspan14651">th</tspan> Nov</tspan></text>
    <rect
       style="opacity:1;fill:#ffffff;stroke:none;stroke-width:0.264999;stroke-miterlimit:4;stroke-dasharray:none"
       id="rect14337"
       width="16.730761"
       height="6.5478077"
       x="185.29732"
       y="138.0298" />
    <text
       xml:space="preserve"
       style="font-style:normal;font-variant:normal;font-weight:normal;font-stretch:normal;font-size:5.64444px;line-height:1.25;font-family:'CMU Serif';-inkscape-font-specification:'CMU Serif';letter-spacing:0px;word-spacing:0px;stroke-width:0.264583"
       x="185.91376"
       y="142.88298"
       id="text7149"><tspan
         sodipodi:role="line"
         id="tspan7147"
         x="185.91376"
         y="142.88298"
         style="font-style:normal;font-variant:normal;font-weight:normal;font-stretch:normal;font-family:'CMU Serif';-inkscape-font-specification:'CMU Serif';stroke-width:0.264583">26<tspan
   style="font-size:65%;baseline-shift:super"
   id="tspan14649">th</tspan> Nov</tspan></text>
    <rect
       style="opacity:1;fill:#ffffff;stroke:none;stroke-width:0.264999;stroke-miterlimit:4;stroke-dasharray:none"
       id="rect14335"
       width="16.730761"
       height="6.5478077"
       x="185.29732"
       y="153.90482" />
    <text
       xml:space="preserve"
       style="font-style:normal;font-variant:normal;font-weight:normal;font-stretch:normal;font-size:5.64444px;line-height:1.25;font-family:'CMU Serif';-inkscape-font-specification:'CMU Serif';letter-spacing:0px;word-spacing:0px;stroke-width:0.264583"
       x="185.91376"
       y="158.758"
       id="text7153"><tspan
         sodipodi:role="line"
         id="tspan7151"
         x="185.91376"
         y="158.758"
         style="font-style:normal;font-variant:normal;font-weight:normal;font-stretch:normal;font-family:'CMU Serif';-inkscape-font-specification:'CMU Serif';stroke-width:0.264583">3<tspan
   style="font-size:65%;baseline-shift:super"
   id="tspan14647">rd</tspan> Dec</tspan></text>
    <rect
       style="opacity:1;fill:#ffffff;stroke:none;stroke-width:0.264999;stroke-miterlimit:4;stroke-dasharray:none"
       id="rect14333"
       width="16.730761"
       height="6.5478077"
       x="185.29732"
       y="185.65485" />
    <text
       xml:space="preserve"
       style="font-style:normal;font-variant:normal;font-weight:normal;font-stretch:normal;font-size:5.64444px;line-height:1.25;font-family:'CMU Serif';-inkscape-font-specification:'CMU Serif';letter-spacing:0px;word-spacing:0px;stroke-width:0.264583"
       x="185.91376"
       y="190.50803"
       id="text7157"><tspan
         sodipodi:role="line"
         id="tspan7155"
         x="185.91376"
         y="190.50803"
         style="font-style:normal;font-variant:normal;font-weight:normal;font-stretch:normal;font-family:'CMU Serif';-inkscape-font-specification:'CMU Serif';stroke-width:0.264583">17<tspan
   style="font-size:65%;baseline-shift:super"
   id="tspan14645">th</tspan> Dec</tspan></text>
    <rect
       style="opacity:1;fill:#ffffff;stroke:none;stroke-width:0.264999;stroke-miterlimit:4;stroke-dasharray:none"
       id="rect14331"
       width="16.730761"
       height="6.5478077"
       x="185.29732"
       y="212.1132" />
    <text
       xml:space="preserve"
       style="font-style:normal;font-variant:normal;font-weight:normal;font-stretch:normal;font-size:5.64444px;line-height:1.25;font-family:'CMU Serif';-inkscape-font-specification:'CMU Serif';letter-spacing:0px;word-spacing:0px;stroke-width:0.264583"
       x="185.91376"
       y="216.96638"
       id="text7161"><tspan
         sodipodi:role="line"
         id="tspan7159"
         x="185.91376"
         y="216.96638"
         style="font-style:normal;font-variant:normal;font-weight:normal;font-stretch:normal;font-family:'CMU Serif';-inkscape-font-specification:'CMU Serif';stroke-width:0.264583">14<tspan
   style="font-size:65%;baseline-shift:super"
   id="tspan14643">th</tspan> Jan</tspan></text>
    <rect
       style="opacity:1;fill:#ffffff;stroke:none;stroke-width:0.264999;stroke-miterlimit:4;stroke-dasharray:none"
       id="rect14329"
       width="16.730761"
       height="6.5478077"
       x="185.29732"
       y="227.98822" />
    <text
       xml:space="preserve"
       style="font-style:normal;font-variant:normal;font-weight:normal;font-stretch:normal;font-size:5.64444px;line-height:1.25;font-family:'CMU Serif';-inkscape-font-specification:'CMU Serif';letter-spacing:0px;word-spacing:0px;stroke-width:0.264583"
       x="185.91376"
       y="232.8414"
       id="text7165"><tspan
         sodipodi:role="line"
         id="tspan7163"
         x="185.91376"
         y="232.8414"
         style="font-style:normal;font-variant:normal;font-weight:normal;font-stretch:normal;font-family:'CMU Serif';-inkscape-font-specification:'CMU Serif';stroke-width:0.264583">21<tspan
   style="font-size:65%;baseline-shift:super"
   id="tspan14641">st</tspan> Jan</tspan></text>
    <rect
       style="opacity:1;fill:#ffffff;stroke:none;stroke-width:0.264999;stroke-miterlimit:4;stroke-dasharray:none"
       id="rect14319"
       width="16.730761"
       height="6.5478077"
       x="185.29732"
       y="243.86324" />
    <text
       xml:space="preserve"
       style="font-size:5.64444px;line-height:1.25;font-family:Aller;-inkscape-font-specification:Aller;letter-spacing:0px;word-spacing:0px;stroke-width:0.264583"
       x="185.91376"
       y="248.7164"
       id="text7169"><tspan
         sodipodi:role="line"
         id="tspan7167"
         x="185.91376"
         y="248.7164"
         style="font-style:normal;font-variant:normal;font-weight:normal;font-stretch:normal;font-family:'CMU Serif';-inkscape-font-specification:'CMU Serif';stroke-width:0.264583">28<tspan
   style="font-size:65%;baseline-shift:super"
   id="tspan14639">th</tspan> Jan</tspan></text>
    <path
       style="fill:none;stroke:#000000;stroke-width:0.265;stroke-linecap:butt;stroke-linejoin:miter;stroke-miterlimit:4;stroke-dasharray:none;stroke-opacity:1;marker-end:url(#marker9497)"
       d="m 162.51439,159.71362 -30.46409,24.8924"
       id="path9493"
       sodipodi:nodetypes="cc" />
    <rect
       style="opacity:1;fill:#ffffff;stroke:none;stroke-width:0.264998;stroke-miterlimit:4;stroke-dasharray:none"
       id="rect14309"
       width="30.691662"
       height="5.7877603"
       x="90.047295"
       y="185.65485" />
    <path
       style="fill:none;stroke:#000000;stroke-width:0.265;stroke-linecap:butt;stroke-linejoin:miter;stroke-miterlimit:4;stroke-dasharray:none;stroke-opacity:1;marker-end:url(#marker9759)"
       d="m 93.099666,188.52782 25.275674,-1e-5"
       id="path9755"
       sodipodi:nodetypes="cc" />
    <path
       style="fill:none;stroke:#000000;stroke-width:0.265;stroke-linecap:butt;stroke-linejoin:miter;stroke-miterlimit:4;stroke-dasharray:none;stroke-opacity:1;marker-end:url(#marker12297)"
       d="M 125.62251,194.32091 85.436101,227.18419"
       id="path12293"
       sodipodi:nodetypes="cc" />
    <path
       style="fill:none;stroke:#000000;stroke-width:0.265;stroke-linecap:butt;stroke-linejoin:miter;stroke-miterlimit:4;stroke-dasharray:none;stroke-opacity:1;marker-end:url(#marker12853)"
       d="M 134.61834,81.079184 89.669434,105.47578"
       id="path12849"
       sodipodi:nodetypes="cc" />
    <path
       style="fill:none;stroke:#000000;stroke-width:0.265;stroke-linecap:butt;stroke-linejoin:miter;stroke-miterlimit:4;stroke-dasharray:none;stroke-opacity:1;marker-end:url(#marker13689)"
       d="m 81.612402,234.69717 v 9.12799"
       id="path13685"
       sodipodi:nodetypes="cc" />
    <path
       style="fill:none;stroke:#000000;stroke-width:0.265;stroke-linecap:butt;stroke-linejoin:miter;stroke-miterlimit:4;stroke-dasharray:none;stroke-opacity:1;marker-end:url(#marker14703)"
       d="M 120.5024,217.42133 89.102151,243.08127"
       id="path14699"
       sodipodi:nodetypes="cc" />
  </g>
</svg>
